Mini-Project-1 – Final_Portfolio_Dean
…
[1] 9.685839

nsim <- 5000      # number of simulations

## code to map through the function. 
## the \(i) syntax says to just repeat the generate_samp_mean function
## nsim times
mins <- map_dbl(1:nsim, \(i) generate_samp_min(mu = mu, sigma = sigma, n = n))

## print some of the 5000 means
## each number represents the sample mean from __one__ sample.
mins_df <- tibble(mins)
mins_df

# A tibble: 5,000 × 1
    mins
   <dbl>
 1  8.68
 2  7.62
 3 10.5 
 4  7.63
 5  7.87
 6 10.2 
 7  7.20
 8  5.82
 9  9.64
10  7.90
# ℹ 4,990 more rows
…
[1] 12.90765

nsim <- 5000      # number of simulations

## code to map through the function. 
## the \(i) syntax says to just repeat the generate_samp_mean function
## nsim times
maxs <- map_dbl(1:nsim, \(i) generate_samp_max(mu = mu, sigma = sigma, n = n))

## print some of the 5000 means
## each number represents the sample mean from __one__ sample.
maxs_df <- tibble(maxs)
maxs_df

# A tibble: 5,000 × 1
    maxs
   <dbl>
 1 12.4 
 2 12.1 
 3 12.9 
 4 13.0 
 5 12.0 
 6 13.2 
 7  9.26
 8 11.6 
 9 12.3 
10 13.0 
# ℹ 4,990 more rows
…
[1] 9.306479

nsim <- 5000      # number of simulations

## code to map through the function. 
## the \(i) syntax says to just repeat the generate_samp_mean function
## nsim times
mins <- map_dbl(1:nsim, \(i) generate_samp_min(mu = mu, sigma = sigma, n = n))

## print some of the 5000 means
## each number represents the sample mean from __one__ sample.
mins_df <- tibble(mins)
mins_df

# A tibble: 5,000 × 1
    mins
   <dbl>
 1  8.26
 2  7.18
 3  8.27
 4  8.36
 5  8.68
 6  8.02
 7  9.85
 8  8.82
 9 11.8 
10  7.47
# ℹ 4,990 more rows
…
[1] 12.70651

nsim <- 5000      # number of simulations

## code to map through the function. 
## the \(i) syntax says to just repeat the generate_samp_mean function
## nsim times
maxs <- map_dbl(1:nsim, \(i) generate_samp_max(mu = mu, sigma = sigma, n = n))

## print some of the 5000 means
## each number represents the sample mean from __one__ sample.
maxs_df <- tibble(maxs)
maxs_df

# A tibble: 5,000 × 1
    maxs
   <dbl>
 1  12.9
 2  11.4
 3  10.5
 4  11.7
 5  11.9
 6  10.4
 7  12.1
 8  12.8
 9  12.4
10  12.2
# ℹ 4,990 more rows
…
[1] 0.01402288

nsim <- 5000      # number of simulations

## code to map through the function. 
## the \(i) syntax says to just repeat the generate_samp_mean function
## nsim times
mins <- map_dbl(1:nsim, \(i) generate_samp_min(mu = mu, sigma = sigma, n = n))

## print some of the 5000 means
## each number represents the sample mean from __one__ sample.
mins_df <- tibble(mins)
mins_df

# A tibble: 5,000 × 1
     mins
    <dbl>
 1 0.267 
 2 0.0730
 3 0.0598
 4 0.557 
 5 0.326 
 6 0.271 
 7 0.0734
 8 0.516 
 9 0.0279
10 0.0767
# ℹ 4,990 more rows
…
[1] 2.800799

nsim <- 5000      # number of simulations

## code to map through the function. 
## the \(i) syntax says to just repeat the generate_samp_mean function
## nsim times
maxs <- map_dbl(1:nsim, \(i) generate_samp_max(mu = mu, sigma = sigma, n = n))

## print some of the 5000 means
## each number represents the sample mean from __one__ sample.
maxs_df <- tibble(maxs)
maxs_df

# A tibble: 5,000 × 1
    maxs
   <dbl>
 1  7.27
 2  5.19
 3  6.08
 4 11.4 
 5  4.07
 6  3.50
 7  4.94
 8  3.24
 9  3.09
10  2.87
# ℹ 4,990 more rows
…
[1] 0.5728779

nsim <- 5000      # number of simulations

## code to map through the function. 
## the \(i) syntax says to just repeat the generate_samp_mean function
## nsim times
mins <- map_dbl(1:nsim, \(i) generate_samp_min(mu = mu, sigma = sigma, n = n))

## print some of the 5000 means
## each number represents the sample mean from __one__ sample.
mins_df <- tibble(mins)
mins_df

# A tibble: 5,000 × 1
    mins
   <dbl>
 1 0.712
 2 0.584
 3 0.463
 4 0.694
 5 0.359
 6 0.781
 7 0.794
 8 0.606
 9 0.785
10 0.675
# ℹ 4,990 more rows
…
[1] 0.8872728

nsim <- 5000      # number of simulations

## code to map through the function. 
## the \(i) syntax says to just repeat the generate_samp_mean function
## nsim times
maxs <- map_dbl(1:nsim, \(i) generate_samp_max(mu = mu, sigma = sigma, n = n))

## print some of the 5000 means
## each number represents the sample mean from __one__ sample.
maxs_df <- tibble(maxs)
maxs_df

# A tibble: 5,000 × 1
    maxs
   <dbl>
 1 0.942
 2 0.959
 3 0.887
 4 0.981
 5 0.972
 6 0.938
 7 0.890
 8 0.911
 9 0.961
10 0.933
# ℹ 4,990 more rows
…
